data_clean
…
Preparing the Regression Data Set

unique(data1$HospitalRating)

[1] NA            "As Expected" "Worse"       "Better"     

data1 %>% 
  filter(!is.na(HospitalRating)) %>% 
  group_by(County, HospitalRating) %>% 
  summarise(count = n())

`summarise()` has grouped output by 'County'. You can override using the
`.groups` argument.

# A tibble: 135 × 3
# Groups:   County [55]
   County    HospitalRating count
   <chr>     <chr>          <int>
 1 Alameda   As Expected     1253
 2 Alameda   Better            53
 3 Alameda   Worse             66
 4 Amador    As Expected       79
 5 Amador    Worse              4
 6 Butte     As Expected      311
 7 Butte     Better            19
 8 Butte     Worse             10
 9 Calaveras As Expected       72
10 Colusa    As Expected       35
# ℹ 125 more rows
…
